hdl/4_15_structural_mux2/tests/wave_vhdl.vcd
$date
  Thu Sep 22 03:25:12 2022
$end
$version
  GHDL v0
$end
$timescale
  1 fs
$end
$scope module standard $end
$upscope $end
$scope module textio $end
$upscope $end
$scope module std_logic_1164 $end
$upscope $end
$scope module mux2 $end
$var reg 4 ! d0[3:0] $end
$var reg 4 " d1[3:0] $end
$var reg 1 # s $end
$var reg 4 $ y[3:0] $end
$var reg 1 % sbar $end
$scope module t0 $end
$var reg 4 & a[3:0] $end
$var reg 1 ' en $end
$var reg 4 ( y[3:0] $end
$upscope $end
$scope module t1 $end
$var reg 4 ) a[3:0] $end
$var reg 1 * en $end
$var reg 4 + y[3:0] $end
$upscope $end
$upscope $end
$enddefinitions $end
#0
b0000 !
b0000 "
0#
b0000 $
1%
b0000 &
1'
b0000 (
b0000 )
0*
b0000 +
#2000000
1#
b0000 $
0%
0'
b0000 (
1*
b0000 +
#4000000
b0001 "
0#
b0000 $
1%
1'
b0000 (
b0001 )
0*
b0000 +
#6000000
1#
b0001 $
0%
0'
b0001 (
1*
b0001 +
#8000000
b0010 "
0#
b0000 $
1%
1'
b0000 (
b0010 )
0*
b0000 +
#10000000
1#
b0010 $
0%
0'
b0010 (
1*
b0010 +
#12000000
b0011 "
0#
b0000 $
1%
1'
b0000 (
b0011 )
0*
b0000 +
#14000000
1#
b0011 $
0%
0'
b0011 (
1*
b0011 +
#16000000
b0100 "
0#
b0000 $
1%
1'
b0000 (
b0100 )
0*
b0000 +
#18000000
1#
b0100 $
0%
0'
b0100 (
1*
b0100 +
#20000000
b0101 "
0#
b0000 $
1%
1'
b0000 (
b0101 )
0*
b0000 +
#22000000
1#
b0101 $
0%
0'
b0101 (
1*
b0101 +
#24000000
b0110 "
0#
b0000 $
1%
1'
b0000 (
b0110 )
0*
b0000 +
#26000000
1#
b0110 $
0%
0'
b0110 (
1*
b0110 +
#28000000
b0111 "
0#
b0000 $
1%
1'
b0000 (
b0111 )
0*
b0000 +
#30000000
1#
b0111 $
0%
0'
b0111 (
1*
b0111 +
#32000000
b1000 "
0#
b0000 $
1%
1'
b0000 (
b1000 )
0*
b0000 +
#34000000
1#
b1000 $
0%
0'
b1000 (
1*
b1000 +
#36000000
b1001 "
0#
b0000 $
1%
1'
b0000 (
b1001 )
0*
b0000 +
#38000000
1#
b1001 $
0%
0'
b1001 (
1*
b1001 +
#40000000
b1010 "
0#
b0000 $
1%
1'
b0000 (
b1010 )
0*
b0000 +
#42000000
1#
b1010 $
0%
0'
b1010 (
1*
b1010 +
#44000000
b1011 "
0#
b0000 $
1%
1'
b0000 (
b1011 )
0*
b0000 +
#46000000
1#
b1011 $
0%
0'
b1011 (
1*
b1011 +
#48000000
b1100 "
0#
b0000 $
1%
1'
b0000 (
b1100 )
0*
b0000 +
#50000000
1#
b1100 $
0%
0'
b1100 (
1*
b1100 +
#52000000
b1101 "
0#
b0000 $
1%
1'
b0000 (
b1101 )
0*
b0000 +
#54000000
1#
b1101 $
0%
0'
b1101 (
1*
b1101 +
#56000000
b1110 "
0#
b0000 $
1%
1'
b0000 (
b1110 )
0*
b0000 +
#58000000
1#
b1110 $
0%
0'
b1110 (
1*
b1110 +
#60000000
b1111 "
0#
b0000 $
1%
1'
b0000 (
b1111 )
0*
b0000 +
#62000000
1#
b1111 $
0%
0'
b1111 (
1*
b1111 +
#64000000
b0001 !
b0000 "
0#
b0001 $
1%
b0001 &
1'
b0001 (
b0000 )
0*
b0001 +
#66000000
1#
b0000 $
0%
0'
b0000 (
1*
b0000 +
#68000000
b0001 "
0#
b0001 $
1%
1'
b0001 (
b0001 )
0*
b0001 +
#70000000
1#
b0001 $
0%
0'
b0001 (
1*
b0001 +
#72000000
b0010 "
0#
b0001 $
1%
1'
b0001 (
b0010 )
0*
b0001 +
#74000000
1#
b0010 $
0%
0'
b0010 (
1*
b0010 +
#76000000
b0011 "
0#
b0001 $
1%
1'
b0001 (
b0011 )
0*
b0001 +
#78000000
1#
b0011 $
0%
0'
b0011 (
1*
b0011 +
#80000000
b0100 "
0#
b0001 $
1%
1'
b0001 (
b0100 )
0*
b0001 +
#82000000
1#
b0100 $
0%
0'
b0100 (
1*
b0100 +
#84000000
b0101 "
0#
b0001 $
1%
1'
b0001 (
b0101 )
0*
b0001 +
#86000000
1#
b0101 $
0%
0'
b0101 (
1*
b0101 +
#88000000
b0110 "
0#
b0001 $
1%
1'
b0001 (
b0110 )
0*
b0001 +
#90000000
1#
b0110 $
0%
0'
b0110 (
1*
b0110 +
#92000000
b0111 "
0#
b0001 $
1%
1'
b0001 (
b0111 )
0*
b0001 +
#94000000
1#
b0111 $
0%
0'
b0111 (
1*
b0111 +
#96000000
b1000 "
0#
b0001 $
1%
1'
b0001 (
b1000 )
0*
b0001 +
#98000000
1#
b1000 $
0%
0'
b1000 (
1*
b1000 +
#100000000
b1001 "
0#
b0001 $
1%
1'
b0001 (
b1001 )
0*
b0001 +
#102000000
1#
b1001 $
0%
0'
b1001 (
1*
b1001 +
#104000000
b1010 "
0#
b0001 $
1%
1'
b0001 (
b1010 )
0*
b0001 +
#106000000
1#
b1010 $
0%
0'
b1010 (
1*
b1010 +
#108000000
b1011 "
0#
b0001 $
1%
1'
b0001 (
b1011 )
0*
b0001 +
#110000000
1#
b1011 $
0%
0'
b1011 (
1*
b1011 +
#112000000
b1100 "
0#
b0001 $
1%
1'
b0001 (
b1100 )
0*
b0001 +
#114000000
1#
b1100 $
0%
0'
b1100 (
1*
b1100 +
#116000000
b1101 "
0#
b0001 $
1%
1'
b0001 (
b1101 )
0*
b0001 +
#118000000
1#
b1101 $
0%
0'
b1101 (
1*
b1101 +
#120000000
b1110 "
0#
b0001 $
1%
1'
b0001 (
b1110 )
0*
b0001 +
#122000000
1#
b1110 $
0%
0'
b1110 (
1*
b1110 +
#124000000
b1111 "
0#
b0001 $
1%
1'
b0001 (
b1111 )
0*
b0001 +
#126000000
1#
b1111 $
0%
0'
b1111 (
1*
b1111 +
#128000000
b0010 !
b0000 "
0#
b0010 $
1%
b0010 &
1'
b0010 (
b0000 )
0*
b0010 +
#130000000
1#
b0000 $
0%
0'
b0000 (
1*
b0000 +
#132000000
b0001 "
0#
b0010 $
1%
1'
b0010 (
b0001 )
0*
b0010 +
#134000000
1#
b0001 $
0%
0'
b0001 (
1*
b0001 +
#136000000
b0010 "
0#
b0010 $
1%
1'
b0010 (
b0010 )
0*
b0010 +
#138000000
1#
b0010 $
0%
0'
b0010 (
1*
b0010 +
#140000000
b0011 "
0#
b0010 $
1%
1'
b0010 (
b0011 )
0*
b0010 +
#142000000
1#
b0011 $
0%
0'
b0011 (
1*
b0011 +
#144000000
b0100 "
0#
b0010 $
1%
1'
b0010 (
b0100 )
0*
b0010 +
#146000000
1#
b0100 $
0%
0'
b0100 (
1*
b0100 +
#148000000
b0101 "
0#
b0010 $
1%
1'
b0010 (
b0101 )
0*
b0010 +
#150000000
1#
b0101 $
0%
0'
b0101 (
1*
b0101 +
#152000000
b0110 "
0#
b0010 $
1%
1'
b0010 (
b0110 )
0*
b0010 +
#154000000
1#
b0110 $
0%
0'
b0110 (
1*
b0110 +
#156000000
b0111 "
0#
b0010 $
1%
1'
b0010 (
b0111 )
0*
b0010 +
#158000000
1#
b0111 $
0%
0'
b0111 (
1*
b0111 +
#160000000
b1000 "
0#
b0010 $
1%
1'
b0010 (
b1000 )
0*
b0010 +
#162000000
1#
b1000 $
0%
0'
b1000 (
1*
b1000 +
#164000000
b1001 "
0#
b0010 $
1%
1'
b0010 (
b1001 )
0*
b0010 +
#166000000
1#
b1001 $
0%
0'
b1001 (
1*
b1001 +
#168000000
b1010 "
0#
b0010 $
1%
1'
b0010 (
b1010 )
0*
b0010 +
#170000000
1#
b1010 $
0%
0'
b1010 (
1*
b1010 +
#172000000
b1011 "
0#
b0010 $
1%
1'
b0010 (
b1011 )
0*
b0010 +
#174000000
1#
b1011 $
0%
0'
b1011 (
1*
b1011 +
#176000000
b1100 "
0#
b0010 $
1%
1'
b0010 (
b1100 )
0*
b0010 +
#178000000
1#
b1100 $
0%
0'
b1100 (
1*
b1100 +
#180000000
b1101 "
0#
b0010 $
1%
1'
b0010 (
b1101 )
0*
b0010 +
#182000000
1#
b1101 $
0%
0'
b1101 (
1*
b1101 +
#184000000
b1110 "
0#
b0010 $
1%
1'
b0010 (
b1110 )
0*
b0010 +
#186000000
1#
b1110 $
0%
0'
b1110 (
1*
b1110 +
#188000000
b1111 "
0#
b0010 $
1%
1'
b0010 (
b1111 )
0*
b0010 +
#190000000
1#
b1111 $
0%
0'
b1111 (
1*
b1111 +
#192000000
b0011 !
b0000 "
0#
b0011 $
1%
b0011 &
1'
b0011 (
b0000 )
0*
b0011 +
#194000000
1#
b0000 $
0%
0'
b0000 (
1*
b0000 +
#196000000
b0001 "
0#
b0011 $
1%
1'
b0011 (
b0001 )
0*
b0011 +
#198000000
1#
b0001 $
0%
0'
b0001 (
1*
b0001 +
#200000000
b0010 "
0#
b0011 $
1%
1'
b0011 (
b0010 )
0*
b0011 +
#202000000
1#
b0010 $
0%
0'
b0010 (
1*
b0010 +
#204000000
b0011 "
0#
b0011 $
1%
1'
b0011 (
b0011 )
0*
b0011 +
#206000000
1#
b0011 $
0%
0'
b0011 (
1*
b0011 +
#208000000
b0100 "
0#
b0011 $
1%
1'
b0011 (
b0100 )
0*
b0011 +
#210000000
1#
b0100 $
0%
0'
b0100 (
1*
b0100 +
#212000000
b0101 "
0#
b0011 $
1%
1'
b0011 (
b0101 )
0*
b0011 +
#214000000
1#
b0101 $
0%
0'
b0101 (
1*
b0101 +
#216000000
b0110 "
0#
b0011 $
1%
1'
b0011 (
b0110 )
0*
b0011 +
#218000000
1#
b0110 $
0%
0'
b0110 (
1*
b0110 +
#220000000
b0111 "
0#
b0011 $
1%
1'
b0011 (
b0111 )
0*
b0011 +
#222000000
1#
b0111 $
0%
0'
b0111 (
1*
b0111 +
#224000000
b1000 "
0#
b0011 $
1%
1'
b0011 (
b1000 )
0*
b0011 +
#226000000
1#
b1000 $
0%
0'
b1000 (
1*
b1000 +
#228000000
b1001 "
0#
b0011 $
1%
1'
b0011 (
b1001 )
0*
b0011 +
#230000000
1#
b1001 $
0%
0'
b1001 (
1*
b1001 +
#232000000
b1010 "
0#
b0011 $
1%
1'
b0011 (
b1010 )
0*
b0011 +
#234000000
1#
b1010 $
0%
0'
b1010 (
1*
b1010 +
#236000000
b1011 "
0#
b0011 $
1%
1'
b0011 (
b1011 )
0*
b0011 +
#238000000
1#
b1011 $
0%
0'
b1011 (
1*
b1011 +
#240000000
b1100 "
0#
b0011 $
1%
1'
b0011 (
b1100 )
0*
b0011 +
#242000000
1#
b1100 $
0%
0'
b1100 (
1*
b1100 +
#244000000
b1101 "
0#
b0011 $
1%
1'
b0011 (
b1101 )
0*
b0011 +
#246000000
1#
b1101 $
0%
0'
b1101 (
1*
b1101 +
#248000000
b1110 "
0#
b0011 $
1%
1'
b0011 (
b1110 )
0*
b0011 +
#250000000
1#
b1110 $
0%
0'
b1110 (
1*
b1110 +
#252000000
b1111 "
0#
b0011 $
1%
1'
b0011 (
b1111 )
0*
b0011 +
#254000000
1#
b1111 $
0%
0'
b1111 (
1*
b1111 +
#256000000
b0100 !
b0000 "
0#
b0100 $
1%
b0100 &
1'
b0100 (
b0000 )
0*
b0100 +
#258000000
1#
b0000 $
0%
0'
b0000 (
1*
b0000 +
#260000000
b0001 "
0#
b0100 $
1%
1'
b0100 (
b0001 )
0*
b0100 +
#262000000
1#
b0001 $
0%
0'
b0001 (
1*
b0001 +
#264000000
b0010 "
0#
b0100 $
1%
1'
b0100 (
b0010 )
0*
b0100 +
#266000000
1#
b0010 $
0%
0'
b0010 (
1*
b0010 +
#268000000
b0011 "
0#
b0100 $
1%
1'
b0100 (
b0011 )
0*
b0100 +
#270000000
1#
b0011 $
0%
0'
b0011 (
1*
b0011 +
#272000000
b0100 "
0#
b0100 $
1%
1'
b0100 (
b0100 )
0*
b0100 +
#274000000
1#
b0100 $
0%
0'
b0100 (
1*
b0100 +
#276000000
b0101 "
0#
b0100 $
1%
1'
b0100 (
b0101 )
0*
b0100 +
#278000000
1#
b0101 $
0%
0'
b0101 (
1*
b0101 +
#280000000
b0110 "
0#
b0100 $
1%
1'
b0100 (
b0110 )
0*
b0100 +
#282000000
1#
b0110 $
0%
0'
b0110 (
1*
b0110 +
#284000000
b0111 "
0#
b0100 $
1%
1'
b0100 (
b0111 )
0*
b0100 +
#286000000
1#
b0111 $
0%
0'
b0111 (
1*
b0111 +
#288000000
b1000 "
0#
b0100 $
1%
1'
b0100 (
b1000 )
0*
b0100 +
#290000000
1#
b1000 $
0%
0'
b1000 (
1*
b1000 +
#292000000
b1001 "
0#
b0100 $
1%
1'
b0100 (
b1001 )
0*
b0100 +
#294000000
1#
b1001 $
0%
0'
b1001 (
1*
b1001 +
#296000000
b1010 "
0#
b0100 $
1%
1'
b0100 (
b1010 )
0*
b0100 +
#298000000
1#
b1010 $
0%
0'
b1010 (
1*
b1010 +
#300000000
b1011 "
0#
b0100 $
1%
1'
b0100 (
b1011 )
0*
b0100 +
#302000000
1#
b1011 $
0%
0'
b1011 (
1*
b1011 +
#304000000
b1100 "
0#
b0100 $
1%
1'
b0100 (
b1100 )
0*
b0100 +
#306000000
1#
b1100 $
0%
0'
b1100 (
1*
b1100 +
#308000000
b1101 "
0#
b0100 $
1%
1'
b0100 (
b1101 )
0*
b0100 +
#310000000
1#
b1101 $
0%
0'
b1101 (
1*
b1101 +
#312000000
b1110 "
0#
b0100 $
1%
1'
b0100 (
b1110 )
0*
b0100 +
#314000000
1#
b1110 $
0%
0'
b1110 (
1*
b1110 +
#316000000
b1111 "
0#
b0100 $
1%
1'
b0100 (
b1111 )
0*
b0100 +
#318000000
1#
b1111 $
0%
0'
b1111 (
1*
b1111 +
#320000000
b0101 !
b0000 "
0#
b0101 $
1%
b0101 &
1'
b0101 (
b0000 )
0*
b0101 +
#322000000
1#
b0000 $
0%
0'
b0000 (
1*
b0000 +
#324000000
b0001 "
0#
b0101 $
1%
1'
b0101 (
b0001 )
0*
b0101 +
#326000000
1#
b0001 $
0%
0'
b0001 (
1*
b0001 +
#328000000
b0010 "
0#
b0101 $
1%
1'
b0101 (
b0010 )
0*
b0101 +
#330000000
1#
b0010 $
0%
0'
b0010 (
1*
b0010 +
#332000000
b0011 "
0#
b0101 $
1%
1'
b0101 (
b0011 )
0*
b0101 +
#334000000
1#
b0011 $
0%
0'
b0011 (
1*
b0011 +
#336000000
b0100 "
0#
b0101 $
1%
1'
b0101 (
b0100 )
0*
b0101 +
#338000000
1#
b0100 $
0%
0'
b0100 (
1*
b0100 +
#340000000
b0101 "
0#
b0101 $
1%
1'
b0101 (
b0101 )
0*
b0101 +
#342000000
1#
b0101 $
0%
0'
b0101 (
1*
b0101 +
#344000000
b0110 "
0#
b0101 $
1%
1'
b0101 (
b0110 )
0*
b0101 +
#346000000
1#
b0110 $
0%
0'
b0110 (
1*
b0110 +
#348000000
b0111 "
0#
b0101 $
1%
1'
b0101 (
b0111 )
0*
b0101 +
#350000000
1#
b0111 $
0%
0'
b0111 (
1*
b0111 +
#352000000
b1000 "
0#
b0101 $
1%
1'
b0101 (
b1000 )
0*
b0101 +
#354000000
1#
b1000 $
0%
0'
b1000 (
1*
b1000 +
#356000000
b1001 "
0#
b0101 $
1%
1'
b0101 (
b1001 )
0*
b0101 +
#358000000
1#
b1001 $
0%
0'
b1001 (
1*
b1001 +
#360000000
b1010 "
0#
b0101 $
1%
1'
b0101 (
b1010 )
0*
b0101 +
#362000000
1#
b1010 $
0%
0'
b1010 (
1*
b1010 +
#364000000
b1011 "
0#
b0101 $
1%
1'
b0101 (
b1011 )
0*
b0101 +
#366000000
1#
b1011 $
0%
0'
b1011 (
1*
b1011 +
#368000000
b1100 "
0#
b0101 $
1%
1'
b0101 (
b1100 )
0*
b0101 +
#370000000
1#
b1100 $
0%
0'
b1100 (
1*
b1100 +
#372000000
b1101 "
0#
b0101 $
1%
1'
b0101 (
b1101 )
0*
b0101 +
#374000000
1#
b1101 $
0%
0'
b1101 (
1*
b1101 +
#376000000
b1110 "
0#
b0101 $
1%
1'
b0101 (
b1110 )
0*
b0101 +
#378000000
1#
b1110 $
0%
0'
b1110 (
1*
b1110 +
#380000000
b1111 "
0#
b0101 $
1%
1'
b0101 (
b1111 )
0*
b0101 +
#382000000
1#
b1111 $
0%
0'
b1111 (
1*
b1111 +
#384000000
b0110 !
b0000 "
0#
b0110 $
1%
b0110 &
1'
b0110 (
b0000 )
0*
b0110 +
#386000000
1#
b0000 $
0%
0'
b0000 (
1*
b0000 +
#388000000
b0001 "
0#
b0110 $
1%
1'
b0110 (
b0001 )
0*
b0110 +
#390000000
1#
b0001 $
0%
0'
b0001 (
1*
b0001 +
#392000000
b0010 "
0#
b0110 $
1%
1'
b0110 (
b0010 )
0*
b0110 +
#394000000
1#
b0010 $
0%
0'
b0010 (
1*
b0010 +
#396000000
b0011 "
0#
b0110 $
1%
1'
b0110 (
b0011 )
0*
b0110 +
#398000000
1#
b0011 $
0%
0'
b0011 (
1*
b0011 +
#400000000
b0100 "
0#
b0110 $
1%
1'
b0110 (
b0100 )
0*
b0110 +
#402000000
1#
b0100 $
0%
0'
b0100 (
1*
b0100 +
#404000000
b0101 "
0#
b0110 $
1%
1'
b0110 (
b0101 )
0*
b0110 +
#406000000
1#
b0101 $
0%
0'
b0101 (
1*
b0101 +
#408000000
b0110 "
0#
b0110 $
1%
1'
b0110 (
b0110 )
0*
b0110 +
#410000000
1#
b0110 $
0%
0'
b0110 (
1*
b0110 +
#412000000
b0111 "
0#
b0110 $
1%
1'
b0110 (
b0111 )
0*
b0110 +
#414000000
1#
b0111 $
0%
0'
b0111 (
1*
b0111 +
#416000000
b1000 "
0#
b0110 $
1%
1'
b0110 (
b1000 )
0*
b0110 +
#418000000
1#
b1000 $
0%
0'
b1000 (
1*
b1000 +
#420000000
b1001 "
0#
b0110 $
1%
1'
b0110 (
b1001 )
0*
b0110 +
#422000000
1#
b1001 $
0%
0'
b1001 (
1*
b1001 +
#424000000
b1010 "
0#
b0110 $
1%
1'
b0110 (
b1010 )
0*
b0110 +
#426000000
1#
b1010 $
0%
0'
b1010 (
1*
b1010 +
#428000000
b1011 "
0#
b0110 $
1%
1'
b0110 (
b1011 )
0*
b0110 +
#430000000
1#
b1011 $
0%
0'
b1011 (
1*
b1011 +
#432000000
b1100 "
0#
b0110 $
1%
1'
b0110 (
b1100 )
0*
b0110 +
#434000000
1#
b1100 $
0%
0'
b1100 (
1*
b1100 +
#436000000
b1101 "
0#
b0110 $
1%
1'
b0110 (
b1101 )
0*
b0110 +
#438000000
1#
b1101 $
0%
0'
b1101 (
1*
b1101 +
#440000000
b1110 "
0#
b0110 $
1%
1'
b0110 (
b1110 )
0*
b0110 +
#442000000
1#
b1110 $
0%
0'
b1110 (
1*
b1110 +
#444000000
b1111 "
0#
b0110 $
1%
1'
b0110 (
b1111 )
0*
b0110 +
#446000000
1#
b1111 $
0%
0'
b1111 (
1*
b1111 +
#448000000
b0111 !
b0000 "
0#
b0111 $
1%
b0111 &
1'
b0111 (
b0000 )
0*
b0111 +
#450000000
1#
b0000 $
0%
0'
b0000 (
1*
b0000 +
#452000000
b0001 "
0#
b0111 $
1%
1'
b0111 (
b0001 )
0*
b0111 +
#454000000
1#
b0001 $
0%
0'
b0001 (
1*
b0001 +
#456000000
b0010 "
0#
b0111 $
1%
1'
b0111 (
b0010 )
0*
b0111 +
#458000000
1#
b0010 $
0%
0'
b0010 (
1*
b0010 +
#460000000
b0011 "
0#
b0111 $
1%
1'
b0111 (
b0011 )
0*
b0111 +
#462000000
1#
b0011 $
0%
0'
b0011 (
1*
b0011 +
#464000000
b0100 "
0#
b0111 $
1%
1'
b0111 (
b0100 )
0*
b0111 +
#466000000
1#
b0100 $
0%
0'
b0100 (
1*
b0100 +
#468000000
b0101 "
0#
b0111 $
1%
1'
b0111 (
b0101 )
0*
b0111 +
#470000000
1#
b0101 $
0%
0'
b0101 (
1*
b0101 +
#472000000
b0110 "
0#
b0111 $
1%
1'
b0111 (
b0110 )
0*
b0111 +
#474000000
1#
b0110 $
0%
0'
b0110 (
1*
b0110 +
#476000000
b0111 "
0#
b0111 $
1%
1'
b0111 (
b0111 )
0*
b0111 +
#478000000
1#
b0111 $
0%
0'
b0111 (
1*
b0111 +
#480000000
b1000 "
0#
b0111 $
1%
1'
b0111 (
b1000 )
0*
b0111 +
#482000000
1#
b1000 $
0%
0'
b1000 (
1*
b1000 +
#484000000
b1001 "
0#
b0111 $
1%
1'
b0111 (
b1001 )
0*
b0111 +
#486000000
1#
b1001 $
0%
0'
b1001 (
1*
b1001 +
#488000000
b1010 "
0#
b0111 $
1%
1'
b0111 (
b1010 )
0*
b0111 +
#490000000
1#
b1010 $
0%
0'
b1010 (
1*
b1010 +
#492000000
b1011 "
0#
b0111 $
1%
1'
b0111 (
b1011 )
0*
b0111 +
#494000000
1#
b1011 $
0%
0'
b1011 (
1*
b1011 +
#496000000
b1100 "
0#
b0111 $
1%
1'
b0111 (
b1100 )
0*
b0111 +
#498000000
1#
b1100 $
0%
0'
b1100 (
1*
b1100 +
#500000000
b1101 "
0#
b0111 $
1%
1'
b0111 (
b1101 )
0*
b0111 +
#502000000
1#
b1101 $
0%
0'
b1101 (
1*
b1101 +
#504000000
b1110 "
0#
b0111 $
1%
1'
b0111 (
b1110 )
0*
b0111 +
#506000000
1#
b1110 $
0%
0'
b1110 (
1*
b1110 +
#508000000
b1111 "
0#
b0111 $
1%
1'
b0111 (
b1111 )
0*
b0111 +
#510000000
1#
b1111 $
0%
0'
b1111 (
1*
b1111 +
#512000000
b1000 !
b0000 "
0#
b1000 $
1%
b1000 &
1'
b1000 (
b0000 )
0*
b1000 +
#514000000
1#
b0000 $
0%
0'
b0000 (
1*
b0000 +
#516000000
b0001 "
0#
b1000 $
1%
1'
b1000 (
b0001 )
0*
b1000 +
#518000000
1#
b0001 $
0%
0'
b0001 (
1*
b0001 +
#520000000
b0010 "
0#
b1000 $
1%
1'
b1000 (
b0010 )
0*
b1000 +
#522000000
1#
b0010 $
0%
0'
b0010 (
1*
b0010 +
#524000000
b0011 "
0#
b1000 $
1%
1'
b1000 (
b0011 )
0*
b1000 +
#526000000
1#
b0011 $
0%
0'
b0011 (
1*
b0011 +
#528000000
b0100 "
0#
b1000 $
1%
1'
b1000 (
b0100 )
0*
b1000 +
#530000000
1#
b0100 $
0%
0'
b0100 (
1*
b0100 +
#532000000
b0101 "
0#
b1000 $
1%
1'
b1000 (
b0101 )
0*
b1000 +
#534000000
1#
b0101 $
0%
0'
b0101 (
1*
b0101 +
#536000000
b0110 "
0#
b1000 $
1%
1'
b1000 (
b0110 )
0*
b1000 +
#538000000
1#
b0110 $
0%
0'
b0110 (
1*
b0110 +
#540000000
b0111 "
0#
b1000 $
1%
1'
b1000 (
b0111 )
0*
b1000 +
#542000000
1#
b0111 $
0%
0'
b0111 (
1*
b0111 +
#544000000
b1000 "
0#
b1000 $
1%
1'
b1000 (
b1000 )
0*
b1000 +
#546000000
1#
b1000 $
0%
0'
b1000 (
1*
b1000 +
#548000000
b1001 "
0#
b1000 $
1%
1'
b1000 (
b1001 )
0*
b1000 +
#550000000
1#
b1001 $
0%
0'
b1001 (
1*
b1001 +
#552000000
b1010 "
0#
b1000 $
1%
1'
b1000 (
b1010 )
0*
b1000 +
#554000000
1#
b1010 $
0%
0'
b1010 (
1*
b1010 +
#556000000
b1011 "
0#
b1000 $
1%
1'
b1000 (
b1011 )
0*
b1000 +
#558000000
1#
b1011 $
0%
0'
b1011 (
1*
b1011 +
#560000000
b1100 "
0#
b1000 $
1%
1'
b1000 (
b1100 )
0*
b1000 +
#562000000
1#
b1100 $
0%
0'
b1100 (
1*
b1100 +
#564000000
b1101 "
0#
b1000 $
1%
1'
b1000 (
b1101 )
0*
b1000 +
#566000000
1#
b1101 $
0%
0'
b1101 (
1*
b1101 +
#568000000
b1110 "
0#
b1000 $
1%
1'
b1000 (
b1110 )
0*
b1000 +
#570000000
1#
b1110 $
0%
0'
b1110 (
1*
b1110 +
#572000000
b1111 "
0#
b1000 $
1%
1'
b1000 (
b1111 )
0*
b1000 +
#574000000
1#
b1111 $
0%
0'
b1111 (
1*
b1111 +
#576000000
b1001 !
b0000 "
0#
b1001 $
1%
b1001 &
1'
b1001 (
b0000 )
0*
b1001 +
#578000000
1#
b0000 $
0%
0'
b0000 (
1*
b0000 +
#580000000
b0001 "
0#
b1001 $
1%
1'
b1001 (
b0001 )
0*
b1001 +
#582000000
1#
b0001 $
0%
0'
b0001 (
1*
b0001 +
#584000000
b0010 "
0#
b1001 $
1%
1'
b1001 (
b0010 )
0*
b1001 +
#586000000
1#
b0010 $
0%
0'
b0010 (
1*
b0010 +
#588000000
b0011 "
0#
b1001 $
1%
1'
b1001 (
b0011 )
0*
b1001 +
#590000000
1#
b0011 $
0%
0'
b0011 (
1*
b0011 +
#592000000
b0100 "
0#
b1001 $
1%
1'
b1001 (
b0100 )
0*
b1001 +
#594000000
1#
b0100 $
0%
0'
b0100 (
1*
b0100 +
#596000000
b0101 "
0#
b1001 $
1%
1'
b1001 (
b0101 )
0*
b1001 +
#598000000
1#
b0101 $
0%
0'
b0101 (
1*
b0101 +
#600000000
b0110 "
0#
b1001 $
1%
1'
b1001 (
b0110 )
0*
b1001 +
#602000000
1#
b0110 $
0%
0'
b0110 (
1*
b0110 +
#604000000
b0111 "
0#
b1001 $
1%
1'
b1001 (
b0111 )
0*
b1001 +
#606000000
1#
b0111 $
0%
0'
b0111 (
1*
b0111 +
#608000000
b1000 "
0#
b1001 $
1%
1'
b1001 (
b1000 )
0*
b1001 +
#610000000
1#
b1000 $
0%
0'
b1000 (
1*
b1000 +
#612000000
b1001 "
0#
b1001 $
1%
1'
b1001 (
b1001 )
0*
b1001 +
#614000000
1#
b1001 $
0%
0'
b1001 (
1*
b1001 +
#616000000
b1010 "
0#
b1001 $
1%
1'
b1001 (
b1010 )
0*
b1001 +
#618000000
1#
b1010 $
0%
0'
b1010 (
1*
b1010 +
#620000000
b1011 "
0#
b1001 $
1%
1'
b1001 (
b1011 )
0*
b1001 +
#622000000
1#
b1011 $
0%
0'
b1011 (
1*
b1011 +
#624000000
b1100 "
0#
b1001 $
1%
1'
b1001 (
b1100 )
0*
b1001 +
#626000000
1#
b1100 $
0%
0'
b1100 (
1*
b1100 +
#628000000
b1101 "
0#
b1001 $
1%
1'
b1001 (
b1101 )
0*
b1001 +
#630000000
1#
b1101 $
0%
0'
b1101 (
1*
b1101 +
#632000000
b1110 "
0#
b1001 $
1%
1'
b1001 (
b1110 )
0*
b1001 +
#634000000
1#
b1110 $
0%
0'
b1110 (
1*
b1110 +
#636000000
b1111 "
0#
b1001 $
1%
1'
b1001 (
b1111 )
0*
b1001 +
#638000000
1#
b1111 $
0%
0'
b1111 (
1*
b1111 +
#640000000
b1010 !
b0000 "
0#
b1010 $
1%
b1010 &
1'
b1010 (
b0000 )
0*
b1010 +
#642000000
1#
b0000 $
0%
0'
b0000 (
1*
b0000 +
#644000000
b0001 "
0#
b1010 $
1%
1'
b1010 (
b0001 )
0*
b1010 +
#646000000
1#
b0001 $
0%
0'
b0001 (
1*
b0001 +
#648000000
b0010 "
0#
b1010 $
1%
1'
b1010 (
b0010 )
0*
b1010 +
#650000000
1#
b0010 $
0%
0'
b0010 (
1*
b0010 +
#652000000
b0011 "
0#
b1010 $
1%
1'
b1010 (
b0011 )
0*
b1010 +
#654000000
1#
b0011 $
0%
0'
b0011 (
1*
b0011 +
#656000000
b0100 "
0#
b1010 $
1%
1'
b1010 (
b0100 )
0*
b1010 +
#658000000
1#
b0100 $
0%
0'
b0100 (
1*
b0100 +
#660000000
b0101 "
0#
b1010 $
1%
1'
b1010 (
b0101 )
0*
b1010 +
#662000000
1#
b0101 $
0%
0'
b0101 (
1*
b0101 +
#664000000
b0110 "
0#
b1010 $
1%
1'
b1010 (
b0110 )
0*
b1010 +
#666000000
1#
b0110 $
0%
0'
b0110 (
1*
b0110 +
#668000000
b0111 "
0#
b1010 $
1%
1'
b1010 (
b0111 )
0*
b1010 +
#670000000
1#
b0111 $
0%
0'
b0111 (
1*
b0111 +
#672000000
b1000 "
0#
b1010 $
1%
1'
b1010 (
b1000 )
0*
b1010 +
#674000000
1#
b1000 $
0%
0'
b1000 (
1*
b1000 +
#676000000
b1001 "
0#
b1010 $
1%
1'
b1010 (
b1001 )
0*
b1010 +
#678000000
1#
b1001 $
0%
0'
b1001 (
1*
b1001 +
#680000000
b1010 "
0#
b1010 $
1%
1'
b1010 (
b1010 )
0*
b1010 +
#682000000
1#
b1010 $
0%
0'
b1010 (
1*
b1010 +
#684000000
b1011 "
0#
b1010 $
1%
1'
b1010 (
b1011 )
0*
b1010 +
#686000000
1#
b1011 $
0%
0'
b1011 (
1*
b1011 +
#688000000
b1100 "
0#
b1010 $
1%
1'
b1010 (
b1100 )
0*
b1010 +
#690000000
1#
b1100 $
0%
0'
b1100 (
1*
b1100 +
#692000000
b1101 "
0#
b1010 $
1%
1'
b1010 (
b1101 )
0*
b1010 +
#694000000
1#
b1101 $
0%
0'
b1101 (
1*
b1101 +
#696000000
b1110 "
0#
b1010 $
1%
1'
b1010 (
b1110 )
0*
b1010 +
#698000000
1#
b1110 $
0%
0'
b1110 (
1*
b1110 +
#700000000
b1111 "
0#
b1010 $
1%
1'
b1010 (
b1111 )
0*
b1010 +
#702000000
1#
b1111 $
0%
0'
b1111 (
1*
b1111 +
#704000000
b1011 !
b0000 "
0#
b1011 $
1%
b1011 &
1'
b1011 (
b0000 )
0*
b1011 +
